Attack__000,0,0,524,565
Attack__001,525,0,524,565
Attack__002,0,566,524,565
Attack__003,525,566,524,565
Attack__004,1050,0,524,565
Attack__005,1050,566,524,565
Attack__006,0,1132,524,565
Attack__007,525,1132,524,565
Attack__008,1050,1132,524,565
Attack__009,1575,0,524,565