Climb_000,0,0,361,497
Climb_001,362,0,361,497
Climb_002,0,498,361,497
Climb_003,362,498,361,497
Climb_004,724,0,361,497
Climb_005,724,498,361,497
Climb_006,1086,0,361,497
Climb_007,1086,498,361,497
Climb_008,0,996,361,497
Climb_009,362,996,361,497