Jump__000,0,0,399,543
Jump__001,400,0,399,543
Jump__002,0,544,399,543
Jump__003,400,544,399,543
Jump__004,800,0,399,543
Jump__005,800,544,399,543
Jump__007,1200,0,399,543
Jump__008,1200,544,399,543
Jump__009,0,1088,399,543
Jump__006,400,1088,399,543