Jump_Throw__000,0,0,425,497
Jump_Throw__001,426,0,425,497
Jump_Throw__002,0,498,425,497
Jump_Throw__003,426,498,425,497
Jump_Throw__004,852,0,425,497
Jump_Throw__005,852,498,425,497
Jump_Throw__006,0,996,425,497
Jump_Throw__007,426,996,425,497
Jump_Throw__008,852,996,425,497
Jump_Throw__009,1278,0,425,497