Run__000,0,0,363,458
Run__006,364,0,363,458
Run__007,0,459,363,458
Run__008,364,459,363,458
Run__009,728,0,363,458
Run__001,728,459,363,458
Run__002,0,918,363,458
Run__003,364,918,363,458
Run__004,728,918,363,458
Run__005,1092,0,363,458